# Wavefront OBJ exported by MilkShape 3D

mtllib Mermaid.mtl

v 3.744200 5.881400 -0.285400
v 3.728100 6.120700 -0.412500
v 2.471000 5.856600 -0.272000
v 2.466600 6.188800 -0.404500
v 2.201000 5.874100 -0.266600
v 2.205700 6.183600 -0.392600
v 0.930800 5.957200 -0.244700
v 0.930700 6.193200 -0.330600
v 0.930500 6.438400 -0.190400
v 2.200700 6.502200 -0.207600
v 0.930500 6.402200 0.199300
v 2.184000 6.453400 0.233800
v 0.930700 6.192800 0.330600
v 2.184100 6.183200 0.392500
v 0.930800 5.961400 0.233700
v 2.184300 5.890900 0.277400
v 2.484300 5.876600 0.276500
v 3.760100 5.905400 0.134100
v 3.744200 5.942400 0.562300
v 3.704400 6.285600 0.672300
v 2.489200 6.193400 0.391200
v 3.785200 6.543600 0.339500
v 2.484000 6.488200 0.233100
v 3.833200 6.541500 -0.236000
v 2.470600 6.530000 -0.211900
v -0.238900 6.423800 -0.344100
v -0.334200 5.807300 -0.472300
v 0.000000 6.423800 -0.401100
v 0.000000 5.807300 -0.591900
v 0.238900 6.423800 -0.344100
v 0.334200 5.807300 -0.472300
v 0.559000 6.192300 -0.324000
v 0.533000 5.900400 -0.254700
v 0.665600 5.923400 -0.242200
v 0.616300 5.807300 0.024400
v 0.631300 5.933500 0.229100
v 0.533000 5.895600 0.297400
v 0.528000 6.195500 0.333500
v 0.334200 5.807300 0.515000
v 0.238900 6.423800 0.386800
v 0.000000 5.807300 0.634600
v 0.000000 6.423800 0.443800
v -0.334200 5.807300 0.515000
v -0.238900 6.423800 0.386800
v -0.528000 6.195500 0.333500
v -0.414700 6.475500 0.250900
v -0.605200 6.428800 0.195600
v -0.390700 6.535600 -0.237300
v -0.626500 6.470300 -0.188700
v -0.559000 6.192200 -0.324000
v 0.390700 6.483900 -0.237300
v 0.626500 6.470400 -0.188600
v 0.414700 6.475500 0.250900
v 0.605200 6.428700 0.195600
v -0.616300 5.807300 0.024400
v -0.533000 5.900400 -0.254700
v -0.665600 5.923400 -0.242200
v -0.533000 5.895600 0.297400
v -0.631300 5.933500 0.229100
v 3.961700 6.230000 0.800500
v 4.516100 6.023200 1.088900
v 3.961900 5.909000 0.703300
v 4.515500 5.729800 0.892700
v 4.051300 5.852000 0.352700
v 4.555300 5.904900 0.546900
v 4.236800 5.969900 0.107900
v 4.653500 6.024500 0.610900
v 4.655200 6.024500 -0.516800
v 5.122900 6.029500 0.670800
v 5.122900 6.030600 -0.535400
v 5.498700 6.026600 0.639500
v 5.498700 6.027600 -0.484100
v 5.813600 6.048000 0.468200
v 5.813600 6.048800 -0.339100
v 5.890300 6.035100 0.064600
v 5.852100 6.233400 -0.407800
v 5.978300 6.226400 0.065300
v 5.498500 6.223500 -0.607200
v 5.122600 6.217300 -0.675300
v 4.654900 6.220000 -0.646900
v 3.999400 5.867000 -0.396100
v 4.006200 6.168700 -0.498300
v 5.852200 6.232500 0.537300
v 5.498500 6.222300 0.736700
v 5.122600 6.216000 0.781000
v 4.642700 6.218400 0.742600
v 4.556200 6.168600 0.743600
v 5.011100 5.924600 1.102300
v 4.970900 5.701100 0.957100
v 4.993400 5.835800 0.701900
v 4.094800 6.566100 -0.240800
v 4.654600 6.606500 -0.316600
v 4.047700 6.492300 0.395200
v 4.654700 6.545600 0.446000
v 5.122300 6.534100 0.465400
v 5.498300 6.501800 0.440600
v 5.813200 6.453100 0.384300
v 5.889700 6.494000 0.065000
v 5.813200 6.453800 -0.251900
v 5.498300 6.552900 -0.301800
v 5.122200 6.593200 -0.323500
v 5.033900 6.059200 0.847200
v 5.057400 5.866100 0.911200
v 4.029900 5.856200 -0.092700
v 4.022800 5.890700 0.130900
v -3.744200 5.881300 -0.285100
v -2.471000 5.856500 -0.271700
v -3.728100 6.120400 -0.412400
v -2.466600 6.188500 -0.404500
v -3.833200 6.541300 -0.236200
v -2.470600 6.529900 -0.212100
v -3.785100 6.543900 0.339300
v -2.484000 6.488400 0.233000
v -3.704400 6.286100 0.672200
v -2.489200 6.193700 0.391200
v -3.744200 5.942900 0.562400
v -2.484300 5.876900 0.276700
v -3.760100 5.905600 0.134400
v -0.930800 5.957100 -0.244500
v -0.930800 5.961600 0.233800
v -0.930700 6.193100 0.330600
v -0.930500 6.402400 0.199200
v -0.930500 6.438300 -0.190500
v -0.930700 6.192900 -0.330600
v -2.184300 5.891100 0.277600
v -2.201000 5.874000 -0.266400
v -2.205700 6.183300 -0.392500
v -2.200700 6.502100 -0.207800
v -2.184000 6.453700 0.233700
v -2.184100 6.183500 0.392500
v -3.961700 6.230800 0.800500
v -3.961900 5.909700 0.703500
v -4.516200 6.024200 1.089000
v -4.515600 5.730700 0.893100
v -5.011300 5.925700 1.102200
v -4.971100 5.702000 0.957300
v -5.057500 5.867000 0.911200
v -4.993400 5.836500 0.701900
v -4.051300 5.852300 0.353000
v -4.555300 5.905500 0.547100
v -4.556200 6.169300 0.743600
v -4.642700 6.219100 0.742500
v -4.653500 6.025100 0.611000
v -5.122600 6.216800 0.781000
v -5.122900 6.030200 0.671000
v -5.498500 6.223100 0.736700
v -5.498800 6.027300 0.639600
v -5.852200 6.233200 0.537300
v -5.813600 6.048600 0.468400
v -5.978300 6.226700 0.065200
v -5.890300 6.035400 0.064700
v -5.852100 6.233300 -0.407800
v -5.813600 6.048700 -0.338900
v -5.498500 6.223100 -0.607200
v -5.498700 6.027400 -0.483900
v -5.122600 6.216900 -0.675400
v -5.122900 6.030300 -0.535300
v -4.654900 6.219600 -0.647000
v -4.655200 6.024100 -0.516600
v -3.999400 5.866700 -0.395800
v -4.029900 5.856200 -0.092400
v -4.236800 5.970000 0.108100
v -4.022800 5.890900 0.131200
v -4.006200 6.168300 -0.498300
v -4.094700 6.566000 -0.241000
v -4.654600 6.606500 -0.316800
v -4.047700 6.492700 0.395100
v -4.654700 6.546200 0.445800
v -5.122300 6.534700 0.465200
v -5.498300 6.502400 0.440500
v -5.813200 6.453700 0.384100
v -5.889700 6.494300 0.064700
v -5.813200 6.453700 -0.252100
v -5.498200 6.552900 -0.302000
v -5.122200 6.593100 -0.323800
v -5.033900 6.060100 0.847100
v -1.319900 8.856300 0.850700
v -1.193000 9.244300 1.017800
v -1.228000 8.504600 1.080700
v -0.874100 9.052900 1.430700
v -1.064400 8.251100 1.495300
v 0.000000 8.389900 1.812500
v -0.816300 7.956000 2.068400
v 0.000000 7.990600 2.278200
v -0.921900 7.502300 2.238900
v 0.001600 7.519100 2.531500
v -0.841700 7.438400 2.220000
v 0.001600 7.453800 2.487100
v -1.559000 7.801100 0.643500
v -1.500700 8.110400 0.333300
v -1.442700 9.544000 0.261700
v -0.915000 9.809300 1.304500
v -0.957700 9.362000 1.413700
v 0.000000 9.895600 1.559300
v 0.000000 9.456500 1.707700
v 0.915000 9.809300 1.304500
v 0.957700 9.362000 1.413700
v 1.193000 9.244300 1.017800
v 0.874100 9.052900 1.430700
v 0.000000 8.856100 1.740800
v 1.064400 8.251100 1.495300
v 1.228000 8.504600 1.080700
v 1.559000 7.801100 0.643500
v 1.500700 8.110400 0.333300
v 1.667900 7.390100 0.386700
v 1.301100 7.390100 -0.696700
v 1.442800 6.883700 0.590700
v 1.132800 6.874700 -0.578300
v 0.881400 6.539000 0.849200
v 0.001600 6.429700 0.338300
v 0.001600 6.443900 0.950500
v -0.881400 6.539000 0.849200
v 0.841700 7.438400 2.220000
v 0.921900 7.502300 2.238900
v 1.392300 7.398700 1.508300
v 1.474900 7.466600 1.506100
v 1.497400 7.354200 0.649200
v 1.640000 7.384300 0.513200
v 1.256600 6.925600 1.366100
v 1.331100 6.865500 1.357600
v 0.651400 6.715200 1.978200
v 0.713500 6.662200 1.966100
v 0.001600 6.654100 2.179200
v 0.001600 6.595200 2.186200
v -0.651400 6.715200 1.978200
v -0.713500 6.662200 1.966100
v -1.256600 6.925600 1.366100
v -1.331100 6.865500 1.357600
v -1.497400 7.354200 0.649200
v -1.640000 7.384300 0.513200
v -1.392300 7.398700 1.508300
v -1.474900 7.466600 1.506100
v -1.324700 7.891400 1.486300
v -1.442800 6.883700 0.590700
v -1.667900 7.390100 0.386700
v -1.301100 7.390100 -0.696700
v -1.108300 9.291500 -0.706300
v 0.001600 7.390100 -1.293900
v 0.000000 9.203200 -1.242700
v 1.108300 9.291500 -0.706300
v 1.442700 9.544000 0.261700
v 1.319900 8.856300 0.850700
v 0.001600 6.770700 -1.012000
v -1.132800 6.874700 -0.578300
v 0.816300 7.956000 2.068400
v 1.324700 7.891400 1.486300
v 0.001600 6.926100 1.367200
v 0.001500 7.355600 0.649200
v 0.755100 5.200900 0.055300
v 0.459600 5.200900 -0.529500
v 0.000000 5.200900 -0.730500
v -0.459600 5.200900 -0.529500
v -0.755100 5.200900 0.055300
v 0.459600 5.200900 0.625000
v 0.000000 5.200900 0.823700
v -0.459600 5.200900 0.625000
v 0.911900 4.605800 0.055300
v 0.602600 4.605800 -0.608400
v 0.000000 4.605800 -0.897200
v -0.602600 4.605800 -0.608400
v -0.911900 4.605800 0.055300
v -0.604300 4.605800 0.722000
v 0.000000 4.605800 1.010800
v 0.604300 4.605800 0.722000
v -0.275300 6.756900 0.142700
v 0.000000 6.756900 0.264200
v -0.275300 6.756900 -0.100000
v 0.000000 6.756900 -0.221500
v 0.275300 6.756900 0.142700
v 0.275300 6.756900 -0.100000
v 0.861600 10.731100 -0.741946
v 0.497400 10.643301 -1.095346
v 1.393700 10.177099 -0.920846
v 0.804600 10.035099 -1.492546
v 1.627900 9.421700 -0.881046
v 0.939900 9.255799 -1.548746
v 1.635100 8.871598 -0.741746
v 0.944000 8.704999 -1.412446
v 1.459800 8.727999 -0.600246
v 0.842800 8.579199 -1.198946
v 0.000000 9.145799 0.110454
v 0.000000 8.524798 -1.418146
v -0.842800 8.579199 -1.198946
v 0.000000 8.643999 -1.657946
v -0.944000 8.704999 -1.412446
v 0.000000 9.195099 -1.793146
v -0.939900 9.255799 -1.548746
v 0.000000 9.983099 -1.701746
v -0.804600 10.035099 -1.492546
v 0.000000 10.611200 -1.224746
v -0.497400 10.643301 -1.095346
v 0.994900 10.851099 -0.259246
v 1.609300 10.371099 -0.139946
v 0.861600 10.971001 0.223554
v 1.393700 10.565100 0.640954
v 0.497400 11.058800 0.576954
v 0.804600 10.707100 1.212554
v 0.000000 11.090900 0.706354
v 0.000000 10.759100 1.421854
v -0.497400 11.058800 0.576954
v -0.804600 10.707100 1.212554
v -0.861600 10.971001 0.223554
v -1.393700 10.565100 0.640954
v -0.994900 10.851099 -0.259246
v -1.609300 10.371099 -0.139946
v -0.861600 10.731100 -0.741946
v -1.393700 10.177099 -0.920846
v 1.879800 9.648298 0.031154
v 1.627900 9.874899 0.943354
v 0.939900 10.040798 1.611055
v 0.000000 10.101500 1.855455
v -0.939900 10.040798 1.611055
v -1.627900 9.874899 0.943354
v -1.879800 9.648298 0.031154
v -1.627900 9.421700 -0.881046
v 1.888100 9.099199 0.174454
v 1.635100 9.326799 1.090654
v 0.944000 9.493399 1.761355
v 0.000000 9.554399 2.006855
v -0.944000 9.493399 1.761355
v -1.635100 9.326799 1.090654
v -1.888100 9.099199 0.174454
v -1.635100 8.871598 -0.741746
v 1.685600 8.931198 0.217754
v 1.459800 9.134398 1.035654
v 0.842800 9.283099 1.634455
v 0.000000 9.337599 1.853655
v -0.842800 9.283099 1.634455
v -1.459800 9.134398 1.035654
v -1.685600 8.931198 0.217754
v -1.459800 8.727999 -0.600246
v -0.606339 9.090108 1.092759
v -0.361439 8.988608 1.092759
v -0.606339 9.239708 1.602659
v -0.255639 9.094408 1.602659
v -0.606339 9.173308 1.850659
v -0.302539 9.047507 1.850659
v -0.606339 8.991708 2.032259
v -0.430939 8.919107 2.032259
v -0.606339 8.743708 2.098659
v -0.358338 8.743708 2.032259
v -0.430939 8.568408 2.032259
v -0.176739 8.743708 1.850659
v -0.302539 8.440008 1.850659
v -0.110339 8.743708 1.602659
v -0.255639 8.393007 1.602659
v -0.259938 8.743708 1.092759
v -0.361439 8.498808 1.092759
v -0.851239 8.988608 1.092759
v -0.957039 9.094408 1.602659
v -0.952639 8.743708 1.092759
v -1.102339 8.743708 1.602659
v -0.851239 8.498808 1.092759
v -0.957039 8.393007 1.602659
v -0.606339 8.397308 1.092759
v -0.606339 8.247708 1.602659
v -0.910039 9.047507 1.850659
v -1.035838 8.743708 1.850659
v -0.910039 8.440008 1.850659
v -0.606339 8.314208 1.850659
v -0.781638 8.919107 2.032259
v -0.854339 8.743708 2.032259
v -0.781638 8.568408 2.032259
v -0.606339 8.495708 2.032259
v 0.606339 9.090808 1.092759
v 0.606339 9.239708 1.602659
v 0.360938 8.989108 1.092759
v 0.255639 9.094408 1.602659
v 0.259238 8.743708 1.092759
v 0.110338 8.743708 1.602659
v 0.360938 8.498307 1.092759
v 0.255639 8.393007 1.602659
v 0.606339 8.396608 1.092759
v 0.606339 8.247708 1.602659
v 0.851739 8.498307 1.092759
v 0.957038 8.393007 1.602659
v 0.953439 8.743708 1.092759
v 1.102338 8.743708 1.602659
v 0.851739 8.989108 1.092759
v 0.957038 9.094408 1.602659
v 0.910039 9.047507 1.850659
v 0.606339 9.173308 1.850659
v 0.302638 9.047507 1.850659
v 0.176839 8.743708 1.850659
v 0.302638 8.440008 1.850659
v 0.606339 8.314208 1.850659
v 0.910039 8.440008 1.850659
v 1.035938 8.743708 1.850659
v 0.781738 8.919107 2.032259
v 0.606339 8.991708 2.032259
v 0.431039 8.919107 2.032259
v 0.358338 8.743708 2.032259
v 0.431039 8.568408 2.032259
v 0.606339 8.495708 2.032259
v 0.781738 8.568408 2.032259
v 0.854339 8.743708 2.032259
v 0.606339 8.743708 2.098659
v -1.380600 -0.089200 1.886900
v -0.840900 0.074800 0.752800
v -1.382400 0.304700 1.946800
v -0.842900 0.500400 0.817500
v 1.368400 0.309200 1.943100
v 0.818200 0.499200 0.818500
v 1.370200 -0.084600 1.883200
v 0.820100 0.073600 0.753800
v -0.009100 -0.155100 0.766800
v -0.013100 0.714900 0.899000
v -0.011800 1.169600 -0.919700
v 0.734900 1.169600 -0.709100
v 1.073000 1.169600 -0.103600
v 0.734900 1.169600 0.508400
v -0.011800 1.169600 0.712500
v -0.758300 1.169600 0.508400
v -1.096600 1.169600 -0.103600
v -0.758300 1.169600 -0.709100
v 0.851700 2.373700 -1.145700
v 1.463500 2.373700 -0.234600
v 0.851700 2.373700 0.719400
v -0.013400 2.373700 1.015600
v -0.879000 2.373700 0.719400
v -1.490400 2.373700 -0.234600
v -0.879000 2.373700 -1.145700
v -0.013400 2.373700 -1.484800
v 0.622000 4.822100 -0.886400
v 0.916700 3.613800 -1.160900
v 1.068000 4.822100 -0.005500
v 1.572600 3.613800 -0.090400
v 0.622000 4.822100 0.868600
v 0.916600 3.613800 1.000200
v -0.010000 4.822100 1.180300
v -0.011800 3.613800 1.369800
v -0.641300 4.822100 0.868600
v -0.940900 3.613800 1.000200
v -1.088100 4.822100 -0.005500
v -1.597700 3.613800 -0.090400
v -0.641300 4.822100 -0.886400
v -0.940800 3.613800 -1.160900
v -0.010000 4.822100 -1.172600
v -0.011600 3.613800 -1.527500
v -0.004200 5.285700 0.160300
v -0.957700 -0.069300 3.206100
v -0.005600 0.006700 2.706600
v 0.962800 -0.069200 3.205900
v 2.761000 0.006700 2.761000
v 2.020300 -0.061100 3.184400
v -2.781000 -0.012600 2.776700
v -2.030900 -0.072400 3.193700
v 0.687700 11.596302 -0.862646
v 0.397100 11.526201 -1.144746
v 0.000000 11.500502 -1.247946
v -0.397100 11.526201 -1.144746
v -0.687700 11.596302 -0.862646
v -0.794100 11.692003 -0.477246
v -0.687700 11.787703 -0.091946
v -0.397100 11.857803 0.190154
v 0.000000 11.883404 0.293354
v 0.397100 11.857803 0.190154
v 0.687700 11.787703 -0.091946
v 0.794100 11.692003 -0.477246
v 0.531900 11.805403 -0.820746
v 0.307100 11.731503 -1.039146
v 0.000000 11.711702 -1.119045
v -0.307100 11.731503 -1.039146
v -0.531900 11.805403 -0.820746
v -0.614200 11.879503 -0.522646
v -0.531900 11.953503 -0.224646
v -0.307100 12.007704 -0.006446
v 0.000000 12.011703 0.081254
v 0.307100 12.007704 -0.006446
v 0.531900 11.953503 -0.224646
v 0.614200 11.879503 -0.522646
v 0.000000 12.009104 -0.554846
# 472 vertices

vt 0.347300 0.613300
vt 0.330200 0.540300
vt 0.313500 0.539100
vt 0.366500 0.613500
vt 0.347000 0.628900
vt 0.365800 0.628400
vt 0.346500 0.704900
vt 0.362300 0.704700
vt 0.320500 0.705100
vt 0.316100 0.630500
vt 0.313300 0.705100
vt 0.307600 0.630500
vt 0.316000 0.607600
vt 0.301100 0.538200
vt 0.311500 0.539600
vt 0.333500 0.542700
vt 0.307500 0.607300
vt 0.348000 0.536400
vt 0.356900 0.530800
vt 0.441800 0.956800
vt 0.448900 0.909300
vt 0.434500 0.956800
vt 0.463100 0.909300
vt 0.428900 0.938900
vt 0.426700 0.920600
vt 0.412500 0.925700
vt 0.402700 0.909300
vt 0.386900 0.926700
vt 0.378700 0.920600
vt 0.379800 0.938900
vt 0.356600 0.909300
vt 0.371000 0.956800
vt 0.339500 0.909300
vt 0.356100 0.956800
vt 0.382800 0.956800
vt 0.388500 0.951500
vt 0.412700 0.961400
vt 0.411200 0.952700
vt 0.403400 0.940000
vt 0.405200 0.937800
vt 0.406300 0.939000
vt 0.405200 0.940200
vt 0.403400 0.938000
vt 0.199700 0.730500
vt 0.230500 0.715400
vt 0.209400 0.736200
vt 0.220400 0.709600
vt 0.187400 0.723100
vt 0.206400 0.699000
vt 0.173500 0.715600
vt 0.201300 0.684400
vt 0.139500 0.684300
vt 0.204600 0.654300
vt 0.138400 0.654300
vt 0.202900 0.630300
vt 0.141200 0.630300
vt 0.193500 0.613400
vt 0.149200 0.613400
vt 0.171300 0.610100
vt 0.145400 0.613400
vt 0.171400 0.607000
vt 0.134500 0.630300
vt 0.128100 0.654200
vt 0.128100 0.684200
vt 0.148900 0.726300
vt 0.128100 0.725000
vt 0.208200 0.630300
vt 0.197300 0.613400
vt 0.210000 0.654200
vt 0.208500 0.685100
vt 0.208700 0.690700
vt 0.239600 0.694300
vt 0.232100 0.689900
vt 0.219300 0.682700
vt 0.094800 0.725000
vt 0.098500 0.684100
vt 0.055100 0.726900
vt 0.057400 0.684100
vt 0.040200 0.685700
vt 0.056000 0.654200
vt 0.041600 0.653700
vt 0.057700 0.630100
vt 0.046800 0.630100
vt 0.061700 0.613200
vt 0.057900 0.613200
vt 0.084200 0.610000
vt 0.084200 0.606800
vt 0.106700 0.613200
vt 0.110600 0.613200
vt 0.097500 0.630100
vt 0.121700 0.630100
vt 0.099000 0.654200
vt 0.040300 0.724600
vt 0.026500 0.688200
vt 0.013000 0.684900
vt 0.025700 0.661200
vt 0.012400 0.661000
vt 0.022500 0.650000
vt 0.334200 0.513500
vt 0.357700 0.513600
vt 0.321200 0.517300
vt 0.308700 0.517400
vt 0.301100 0.517400
vt 0.293500 0.517400
vt 0.173500 0.724800
vt 0.159800 0.724300
vt 0.233800 0.678800
vt 0.033500 0.661200
vt 0.036600 0.680500
vt 0.347600 0.513500
vt 0.327700 0.513400
vt 0.310400 0.517200
vt 0.346500 0.703800
vt 0.320500 0.704000
vt 0.313300 0.704000
vt 0.362300 0.703600
vt 0.155400 0.923300
vt 0.161400 0.979800
vt 0.177500 0.950200
vt 0.121800 0.965200
vt 0.115600 0.903900
vt 0.085200 0.914500
vt 0.060600 0.881400
vt 0.040500 0.884000
vt 0.044200 0.846700
vt 0.016100 0.848000
vt 0.050100 0.840400
vt 0.024500 0.841500
vt 0.298100 0.929800
vt 0.303300 0.922600
vt 0.295200 0.926300
vt 0.306900 0.925800
vt 0.300800 0.933500
vt 0.307600 0.938500
vt 0.298900 0.937500
vt 0.295900 0.940300
vt 0.295000 0.937900
vt 0.291600 0.941300
vt 0.291000 0.937400
vt 0.294000 0.935500
vt 0.290400 0.933500
vt 0.306300 0.918300
vt 0.319000 0.918300
vt 0.303900 0.913100
vt 0.317600 0.913200
vt 0.300800 0.909600
vt 0.313200 0.909700
vt 0.299700 0.908600
vt 0.092000 0.950200
vt 0.114400 0.837900
vt 0.114600 0.844000
vt 0.199900 0.835400
vt 0.209900 0.837700
vt 0.126700 0.800000
vt 0.128800 0.798100
vt 0.072700 0.785500
vt 0.070400 0.782500
vt 0.053500 0.780900
vt 0.049300 0.777400
vt 0.116500 0.876500
vt 0.197400 0.869600
vt 0.202400 0.799500
vt 0.177600 0.773100
vt 0.167900 0.765900
vt 0.222000 0.838200
vt 0.320100 0.936500
vt 0.326000 0.918300
vt 0.326100 0.936000
vt 0.324100 0.913200
vt 0.208400 0.207700
vt 0.192700 0.207700
vt 0.200300 0.197900
vt 0.189700 0.227600
vt 0.208400 0.227700
vt 0.191100 0.229700
vt 0.197900 0.231600
vt 0.224000 0.207700
vt 0.216500 0.197900
vt 0.227000 0.227600
vt 0.225700 0.229700
vt 0.208400 0.195000
vt 0.208400 0.232300
vt 0.218800 0.231600
vt 0.392400 0.862600
vt 0.460100 0.862600
vt 0.478300 0.862600
vt 0.341800 0.862600
vt 0.323000 0.862600
vt 0.471400 0.816800
vt 0.389300 0.816800
vt 0.489600 0.816800
vt 0.327900 0.816800
vt 0.314300 0.816800
vt 0.392200 0.982400
vt 0.381600 0.982400
vt 0.413300 0.982400
vt 0.423900 0.982400
vt 0.487000 0.694800
vt 0.486400 0.708000
vt 0.488100 0.694900
vt 0.487200 0.677700
vt 0.488600 0.677800
vt 0.487200 0.663000
vt 0.488600 0.663100
vt 0.487000 0.589800
vt 0.488200 0.590000
vt 0.485400 0.528400
vt 0.485500 0.694600
vt 0.484500 0.707800
vt 0.483900 0.694500
vt 0.482800 0.694400
vt 0.485400 0.677500
vt 0.483700 0.677400
vt 0.482300 0.677200
vt 0.485400 0.662800
vt 0.483600 0.662600
vt 0.482300 0.662500
vt 0.485400 0.589600
vt 0.483800 0.589400
vt 0.482600 0.589300
vt 0.500000 1.000000
vt 0.806200 0.806200
vt 0.500000 0.933000
vt 0.853600 0.853600
vt 0.500000 0.667500
vt 0.618400 0.618400
vt 0.500000 0.500000
vt 0.667500 0.500000
vt 0.618400 0.381600
vt 0.933000 0.500000
vt 0.806200 0.193800
vt 1.000000 0.500000
vt 0.853600 0.146400
vt 0.193800 0.806200
vt 0.146400 0.853600
vt 0.067000 0.500000
vt 0.000000 0.500000
vt 0.193800 0.193800
vt 0.146400 0.146400
vt 0.500000 0.067000
vt 0.500000 0.000000
vt 0.381600 0.618400
vt 0.332500 0.500000
vt 0.381600 0.381600
vt 0.500000 0.332500
vt 0.927700 0.741500
vt 0.929800 0.974400
vt 0.928800 0.737600
vt 0.936400 0.975700
vt 0.734400 0.600400
vt 0.631700 0.743300
vt 0.934700 0.974900
vt 0.931600 0.737600
vt 0.988800 0.437500
vt 0.859400 0.502200
vt 0.293000 0.025700
vt 0.293800 0.221800
vt 0.509600 0.226500
vt 0.077900 0.226500
vt 0.427600 0.444700
vt 0.294400 0.444700
vt 0.573500 0.440200
vt 0.161200 0.444700
vt 0.011900 0.446300
vt 0.573200 0.601900
vt 0.428900 0.603900
vt 0.294200 0.603900
vt 0.159400 0.603900
vt 0.011900 0.604500
vt 0.572600 0.913000
vt 0.424500 0.761800
vt 0.422200 0.910200
vt 0.572000 0.762300
vt 0.294300 0.910200
vt 0.294200 0.761800
vt 0.166500 0.910200
vt 0.163800 0.761800
vt 0.012000 0.908800
vt 0.012000 0.761300
vt 0.295500 0.987400
vt 0.051400 0.051200
vt 0.036800 0.149700
vt 0.036800 0.051200
vt 0.051400 0.149700
vt 0.066100 0.051200
vt 0.066100 0.149700
vt 0.080700 0.051200
vt 0.080700 0.149700
vt 0.095300 0.051200
vt 0.095300 0.149700
vt 0.110000 0.051200
vt 0.110000 0.149700
vt 0.124600 0.051200
vt 0.124600 0.149700
vt 0.139200 0.051200
vt 0.139200 0.149700
vt 0.153900 0.051200
vt 0.153900 0.149700
vt 0.168500 0.051200
vt 0.168500 0.149700
vt 0.183100 0.051200
vt 0.183100 0.149700
vt 0.197700 0.051200
vt 0.197700 0.149700
vt 0.212400 0.051200
vt 0.212400 0.149700
vt 0.036800 0.175100
vt 0.051400 0.175100
vt 0.066100 0.175100
vt 0.080700 0.175100
vt 0.095300 0.175100
vt 0.110000 0.175100
vt 0.124600 0.175100
vt 0.139200 0.175100
vt 0.153900 0.175100
vt 0.168500 0.175100
vt 0.183100 0.175100
vt 0.197700 0.175100
vt 0.212400 0.175100
vt 0.124600 0.203300
# 320 texture coordinates

vn -0.022996 -0.895617 -0.444232
vn -0.154431 -0.045591 -0.986951
vn -0.129940 -0.917487 -0.375943
vn -0.036291 0.067703 -0.997045
vn -0.059504 -0.752061 -0.656401
vn -0.045913 0.074730 -0.996146
vn 0.003120 -0.822159 -0.569250
vn -0.015847 0.163849 -0.986358
vn 0.021383 0.888806 -0.457784
vn -0.068157 0.887868 -0.455022
vn -0.003125 0.847023 0.531547
vn -0.074235 0.840770 0.536279
vn -0.026473 0.177972 0.983679
vn -0.035659 0.067779 0.997063
vn -0.008159 -0.684575 0.728896
vn -0.048410 -0.866488 0.496845
vn -0.077289 -0.801046 0.593592
vn -0.056845 -0.997434 0.043515
vn -0.327367 -0.760902 0.560232
vn -0.289219 0.154494 0.944714
vn -0.092837 0.134929 0.986497
vn -0.038334 0.882369 0.468995
vn -0.061610 0.843462 0.533644
vn -0.063196 0.911651 -0.406076
vn -0.057389 0.877041 -0.476975
vn -0.067627 0.357461 -0.931477
vn -0.438072 0.165931 -0.883493
vn -0.248900 0.407718 -0.878530
vn 0.108991 0.242148 -0.964098
vn 0.295370 0.397416 -0.868802
vn 0.584932 0.104240 -0.804356
vn 0.236263 0.061287 -0.969754
vn 0.674321 -0.292755 -0.677928
vn 0.387697 -0.713678 -0.583400
vn 0.929148 -0.368452 0.030457
vn 0.500645 -0.721465 0.478375
vn 0.803108 -0.047913 0.593903
vn 0.319825 0.146605 0.936066
vn 0.479924 0.206312 0.852707
vn 0.341885 0.389381 0.855276
vn -0.028163 0.281444 0.959164
vn -0.067627 0.357461 0.931477
vn -0.540652 0.178213 0.822153
vn -0.344666 0.404604 0.847054
vn -0.353958 0.091318 0.930792
vn -0.546886 0.617086 0.565792
vn -0.183432 0.817744 0.545571
vn -0.539237 0.734674 -0.411678
vn -0.183565 0.914766 -0.359871
vn -0.238938 0.157514 -0.958174
vn 0.568071 0.648477 -0.506727
vn 0.134567 0.862179 -0.488405
vn 0.485978 0.726583 0.485699
vn 0.187566 0.866637 0.462341
vn -0.368421 -0.720635 -0.587325
vn -0.726445 -0.174612 -0.664672
vn -0.993657 -0.105673 -0.038466
vn -0.848231 -0.134352 0.512302
vn -0.303785 -0.837463 0.454281
vn -0.466596 -0.665745 0.582299
vn -0.165596 0.348103 0.922715
vn -0.218282 0.395312 0.892234
vn -0.166727 -0.921960 0.349560
vn -0.008040 -0.992258 -0.123933
vn 0.372929 -0.811049 -0.450691
vn 0.387219 -0.911181 -0.140747
vn 0.286676 -0.871368 0.398164
vn 0.090037 -0.937472 -0.336215
vn -0.016522 -0.874575 0.484608
vn 0.044589 -0.887826 -0.458014
vn 0.136107 -0.854949 0.500537
vn 0.211438 -0.855310 -0.473011
vn 0.482400 -0.798051 0.361118
vn 0.403453 -0.854045 -0.328380
vn 0.774244 -0.628389 -0.075330
vn 0.755974 0.001241 -0.654601
vn 0.999473 -0.030264 -0.011762
vn 0.276406 0.082132 -0.957525
vn 0.034817 0.057151 -0.997758
vn -0.136838 0.088150 -0.986664
vn -0.129353 -0.702846 -0.699483
vn -0.230803 0.205696 -0.951009
vn 0.348817 0.156720 0.923994
vn 0.839183 0.124496 0.529408
vn 0.048466 0.141210 0.988793
vn 0.015137 0.184121 0.982787
vn 0.524960 0.573452 0.628943
vn 0.540647 -0.123705 0.832105
vn 0.451729 -0.891986 0.017357
vn 0.696923 -0.090260 -0.711443
vn -0.135237 0.858450 -0.494747
vn -0.056668 0.927667 -0.369084
vn -0.009760 0.946463 0.322663
vn -0.038063 0.929519 0.366804
vn 0.045167 0.904419 0.424248
vn 0.134077 0.898875 0.417189
vn 0.474198 0.720404 0.506116
vn 0.654231 0.754251 0.055562
vn 0.688538 0.601353 -0.405326
vn 0.218477 0.915159 -0.338750
vn 0.073302 0.929400 -0.361722
vn 0.712361 0.701519 -0.020327
vn 0.983600 -0.180271 0.005840
vn 0.117031 -0.990315 0.074705
vn 0.147011 -0.989000 -0.016322
vn 0.161353 -0.042003 -0.986003
vn 0.022875 -0.895976 -0.443514
vn 0.130076 -0.917806 -0.375117
vn 0.028906 0.044899 -0.998573
vn -0.006047 0.852875 -0.522080
vn 0.068611 0.918316 -0.389856
vn 0.004961 0.946897 0.321500
vn 0.100970 0.775540 0.623172
vn 0.329501 0.232711 0.915027
vn 0.113317 -0.077227 0.990553
vn 0.267891 -0.773431 0.574490
vn 0.046239 -0.874045 0.483639
vn 0.056887 -0.997401 0.044220
vn -0.019006 -0.932958 -0.359482
vn -0.001611 -0.745846 0.666116
vn 0.017386 0.080975 0.996564
vn -0.017210 0.847212 0.530976
vn 0.006606 0.836159 -0.548448
vn 0.022170 -0.066804 -0.997520
vn 0.049812 -0.817148 0.574271
vn 0.057980 -0.686271 -0.725031
vn 0.049978 0.225591 -0.972939
vn 0.074741 0.888824 -0.452112
vn 0.074998 0.917388 0.390864
vn 0.033519 0.235107 0.971391
vn 0.231642 0.153191 0.960664
vn 0.473567 -0.609870 0.635447
vn 0.143405 0.497084 0.855770
vn 0.166550 -0.921629 0.350516
vn -0.509290 0.145594 0.848190
vn -0.451890 -0.891892 0.017996
vn -0.983676 -0.179863 0.005515
vn -0.696664 -0.090526 -0.711663
vn 0.008053 -0.992360 -0.123111
vn -0.405719 -0.873028 -0.270580
vn -0.057105 0.173332 0.983206
vn -0.397652 0.830077 0.390953
vn -0.162113 -0.919181 0.358924
vn -0.012449 0.119545 0.992751
vn -0.013961 -0.862933 0.505125
vn -0.273837 0.136684 0.952014
vn -0.222344 -0.840385 0.494283
vn -0.797618 0.027958 0.602514
vn -0.548852 -0.776119 0.310486
vn -0.999473 -0.030220 -0.011815
vn -0.774305 -0.628374 -0.074824
vn -0.796415 0.099071 -0.596580
vn -0.365095 -0.856239 -0.365460
vn -0.332108 0.118431 -0.935777
vn -0.134880 -0.878183 -0.458915
vn -0.064131 0.061442 -0.996048
vn -0.008023 -0.890675 -0.454569
vn 0.122531 -0.029027 -0.992040
vn -0.127862 -0.946712 -0.295615
vn 0.129462 -0.703546 -0.698758
vn -0.116886 -0.990267 0.075562
vn -0.387110 -0.911339 -0.140025
vn -0.146839 -0.989036 -0.015666
vn 0.273326 0.141686 -0.951429
vn 0.174678 0.797701 -0.577201
vn 0.056756 0.927392 -0.369760
vn 0.009982 0.946704 0.321951
vn 0.038084 0.929748 0.366221
vn -0.045055 0.904720 0.423616
vn -0.134052 0.899180 0.416539
vn -0.474236 0.720785 0.505538
vn -0.654285 0.754264 0.054750
vn -0.688498 0.600993 -0.405929
vn -0.218448 0.914858 -0.339582
vn -0.073359 0.929106 -0.362466
vn -0.817680 0.551012 -0.166692
vn -0.889879 0.148888 0.431217
vn -0.869766 0.094954 0.484243
vn -0.929029 0.066214 0.364033
vn -0.555183 0.069449 0.828824
vn -0.694739 0.440231 0.568801
vn 0.000000 0.516940 0.856022
vn -0.508404 0.547203 0.664902
vn 0.000119 0.556675 0.830730
vn -0.499269 -0.018992 0.866239
vn 0.000434 -0.250803 0.968038
vn -0.285839 -0.830106 0.478770
vn 0.000246 -0.874746 0.484581
vn -0.941106 0.258018 0.218508
vn -0.990611 0.136168 -0.012163
vn -0.927857 0.357026 0.107770
vn -0.575565 0.735554 0.357332
vn -0.557227 0.116179 0.822192
vn -0.079938 0.879864 0.468454
vn -0.006149 0.166679 0.985992
vn 0.483190 0.784159 0.389388
vn 0.567414 0.057808 0.821401
vn 0.869766 0.094954 0.484243
vn 0.600077 0.069221 0.796942
vn 0.066717 0.074509 0.994986
vn 0.941106 0.258018 0.218508
vn 0.889879 0.148888 0.431217
vn 0.694739 0.440231 0.568801
vn 0.990611 0.136169 -0.012163
vn 0.997757 -0.059439 -0.030774
vn 0.785403 -0.129690 -0.605245
vn 0.818734 -0.572251 -0.046939
vn 0.485981 -0.733326 -0.475453
vn 0.329853 -0.943960 0.011653
vn 0.000272 -0.990510 -0.137444
vn 0.026473 -0.996159 0.083468
vn -0.281090 -0.959377 0.024181
vn 0.218757 -0.852441 0.474857
vn 0.538490 -0.156645 0.827944
vn 0.364452 -0.900020 0.239038
vn 0.851792 -0.297554 0.431175
vn 0.603268 -0.501226 0.620355
vn 0.938160 0.043610 0.343445
vn 0.253055 0.792141 0.555406
vn 0.831202 -0.108527 0.545275
vn 0.300873 0.677606 0.671063
vn 0.438215 -0.521429 0.732175
vn 0.068518 0.538280 0.839976
vn -0.096624 -0.626344 0.773536
vn -0.259132 0.603092 0.754407
vn -0.604778 -0.412432 0.681280
vn -0.342095 0.729330 0.592494
vn -0.799434 0.163238 0.578150
vn -0.440777 0.382133 0.812213
vn -0.945222 -0.176896 0.274340
vn -0.313436 -0.932949 0.177101
vn -0.842965 -0.242656 0.480134
vn -0.857632 0.372832 0.354207
vn -0.735895 -0.676378 0.031154
vn -0.991412 -0.111204 -0.068822
vn -0.741434 -0.137936 -0.656696
vn -0.538436 0.591645 -0.600036
vn -0.011618 -0.187682 -0.982161
vn 0.096899 0.654699 -0.749653
vn 0.635485 0.560834 -0.530683
vn 0.927857 0.357026 0.107770
vn 0.929029 0.066214 0.364033
vn -0.090320 -0.698425 -0.709961
vn -0.563196 -0.740581 -0.366539
vn 0.508404 0.547203 0.664902
vn 0.857632 0.372832 0.354207
vn -0.000108 0.913861 0.406027
vn 0.000201 -0.878551 0.477648
vn 0.973607 0.214128 -0.078981
vn 0.574085 0.230989 -0.785538
vn -0.135228 0.230877 -0.963540
vn -0.717619 0.203684 -0.665985
vn -0.966258 0.209856 0.149349
vn 0.662150 0.240092 0.709868
vn 0.133187 0.283464 0.949689
vn -0.564169 0.274836 0.778575
vn 0.756992 0.250039 -0.603691
vn 0.966995 0.254789 -0.001871
vn 0.141429 0.257454 -0.955885
vn -0.592019 0.253629 -0.764974
vn -0.951603 0.262960 -0.159071
vn -0.752813 0.264367 0.602812
vn -0.138874 0.286883 0.947846
vn 0.670906 0.270910 0.690285
vn -0.609960 0.702493 0.366677
vn 0.000000 0.836162 0.548483
vn -0.331763 0.862478 -0.382184
vn 0.000000 0.836162 -0.548483
vn 0.532028 0.789912 0.304933
vn 0.482500 0.740134 -0.468397
vn 0.652568 0.547226 -0.524117
vn 0.487945 0.346220 -0.801275
vn 0.789567 0.362821 -0.494919
vn 0.416675 0.402364 -0.815160
vn 0.841299 0.113440 -0.528534
vn 0.494115 -0.029477 -0.868897
vn 0.832918 -0.381763 -0.400630
vn 0.439079 -0.600406 -0.668372
vn 0.360817 -0.932477 0.017256
vn 0.147483 -0.984384 -0.096112
vn -0.000000 -0.969951 0.243301
vn 0.000000 -0.999404 -0.034524
vn -0.147483 -0.984384 -0.096112
vn 0.000000 -0.739553 -0.673098
vn -0.439079 -0.600406 -0.668372
vn -0.000000 -0.121846 -0.992549
vn -0.494115 -0.029477 -0.868897
vn -0.000000 0.289358 -0.957221
vn -0.416675 0.402364 -0.815160
vn 0.039076 0.356840 -0.933348
vn -0.410117 0.335739 -0.847988
vn 0.845111 0.522361 -0.113699
vn 0.811525 0.563605 -0.154194
vn 0.723038 0.625466 0.293270
vn 0.710948 0.660105 0.242515
vn 0.408008 0.699683 0.586491
vn 0.419117 0.731777 0.537441
vn -0.015518 0.725357 0.688198
vn 0.014040 0.759194 0.650712
vn -0.435179 0.695614 0.571612
vn -0.394946 0.734866 0.551352
vn -0.738969 0.618412 0.267379
vn -0.697357 0.665405 0.266326
vn -0.845574 0.514077 -0.143980
vn -0.812023 0.569617 -0.127103
vn -0.725454 0.410536 -0.552427
vn -0.708914 0.473396 -0.522816
vn 0.983606 0.174402 -0.045854
vn 0.852908 0.293647 0.431647
vn 0.493741 0.381300 0.781556
vn 0.002393 0.413915 0.910312
vn -0.489435 0.382786 0.783536
vn -0.850179 0.296214 0.435261
vn -0.983256 0.177480 -0.041335
vn -0.852976 0.058258 -0.518688
vn 0.909618 -0.398883 0.116133
vn 0.780878 -0.286234 0.555247
vn 0.441982 -0.204638 0.873370
vn -0.016304 -0.176287 0.984204
vn -0.470179 -0.208923 0.857486
vn -0.797040 -0.293608 0.527752
vn -0.909324 -0.407440 0.084398
vn -0.777935 -0.519675 -0.353206
vn 0.363371 -0.894213 0.261430
vn 0.297180 -0.850737 0.433510
vn 0.150194 -0.821165 0.550573
vn -0.038013 -0.813693 0.580051
vn -0.215896 -0.830446 0.513564
vn -0.334810 -0.866765 0.369622
vn -0.363024 -0.912622 0.187975
vn -0.294165 -0.955590 0.017726
vn 0.000001 0.994466 -0.105062
vn 0.579783 0.765477 -0.279099
vn 0.000001 0.959554 -0.281524
vn 0.706737 0.707372 -0.012128
vn -0.000032 0.905493 0.424361
vn 0.622434 0.599133 0.503603
vn -0.000048 0.571586 0.820542
vn 0.424520 0.340206 0.839072
vn -0.000015 -0.000015 1.000000
vn 0.495800 -0.000055 0.868437
vn 0.424579 -0.340207 0.839042
vn 0.815917 -0.000059 0.578170
vn 0.622433 -0.599106 0.503636
vn 0.996707 -0.000017 0.081088
vn 0.706744 -0.707368 -0.011976
vn 0.959542 -0.000000 -0.281566
vn 0.579782 -0.765478 -0.279100
vn -0.579866 0.765413 -0.279103
vn -0.706788 0.707322 -0.012061
vn -0.951205 0.131361 -0.279203
vn -0.999929 0.000402 -0.011941
vn -0.765526 -0.579681 -0.279178
vn -0.707356 -0.706757 -0.011884
vn -0.131370 -0.951230 -0.279113
vn -0.000361 -0.999930 -0.011850
vn -0.622418 0.599047 0.503725
vn -0.863703 -0.016530 0.503730
vn -0.599020 -0.622417 0.503757
vn 0.016438 -0.863716 0.503710
vn -0.424574 0.340305 0.839005
vn -0.540832 -0.059647 0.839013
vn -0.340306 -0.424632 0.838975
vn 0.059546 -0.540850 0.839009
vn -0.579995 0.765757 -0.277888
vn 0.000349 0.999935 -0.011399
vn 0.131419 0.951577 -0.277902
vn -0.951577 0.131420 -0.277901
vn -0.765756 -0.579996 -0.277888
vn -0.131418 -0.951578 -0.277901
vn 0.579994 -0.765758 -0.277888
vn 0.951578 -0.131419 -0.277900
vn 0.999936 -0.000390 -0.011341
vn 0.765758 0.579995 -0.277887
vn 0.599110 0.622462 0.503595
vn -0.016564 0.863750 0.503649
vn 0.863734 0.016497 0.503678
vn 0.340271 0.424547 0.839032
vn -0.059654 0.540779 0.839046
vn 0.540839 0.059613 0.839011
vn -0.570679 0.788877 -0.228033
vn -0.667371 -0.647454 -0.367993
vn -0.307033 -0.895702 -0.321633
vn -0.547118 0.677874 0.491069
vn 0.218249 0.742427 0.633380
vn 0.021435 -0.141846 0.989657
vn 0.567494 -0.691151 -0.447506
vn 0.796554 0.546574 0.258378
vn 0.309214 0.949218 -0.058062
vn 0.548418 -0.802643 -0.234524
vn -0.245653 -0.886878 0.391283
vn 0.732096 0.109156 -0.672399
vn 0.257096 -0.131813 0.957354
vn -0.734304 0.102205 -0.671083
vn -0.245525 -0.134493 0.960015
vn 0.038087 -0.931520 -0.361690
vn 0.056976 0.657589 0.751219
vn 0.516879 -0.526182 -0.675254
vn -0.041873 -0.661906 -0.748416
vn 0.971681 -0.175687 0.158021
vn 0.506962 0.096906 0.856504
vn -0.089729 0.092817 0.991632
vn -0.675711 0.034447 0.736361
vn -0.978647 -0.199558 -0.049259
vn -0.509543 -0.499318 -0.700748
vn 0.975996 -0.217769 0.002979
vn 0.674174 -0.150441 -0.723089
vn 0.618657 -0.215089 0.755645
vn -0.017732 -0.246329 0.969024
vn -0.602226 -0.197867 0.773416
vn -0.983495 -0.180388 -0.014092
vn -0.625261 -0.182323 -0.758819
vn 0.056517 -0.248714 -0.966927
vn 0.756273 0.645557 -0.106335
vn 0.642021 0.151528 -0.751564
vn 0.483600 0.617265 -0.620577
vn 0.988599 0.148486 -0.024964
vn 0.611181 0.574123 0.544831
vn 0.653713 0.014107 0.756611
vn 0.086432 0.542280 0.835741
vn -0.021934 -0.049282 0.998544
vn -0.522286 0.544688 0.656149
vn -0.648519 0.022119 0.760877
vn -0.759955 0.637887 0.124773
vn -0.990218 0.138207 0.019140
vn -0.571455 0.637920 -0.516234
vn -0.638723 0.138525 -0.756865
vn -0.081916 0.629429 -0.772728
vn 0.005814 0.130131 -0.991480
vn 0.001096 0.999564 0.029517
vn 0.759247 0.346885 -0.550649
vn 0.423561 0.281406 -0.861050
vn -0.012132 0.260263 -0.965461
vn -0.447136 0.291325 -0.845695
vn -0.764750 0.357702 -0.535916
vn -0.881654 0.460440 -0.103346
vn -0.757645 0.567523 0.322322
vn -0.431150 0.645093 0.630845
vn 0.015732 0.681435 0.731709
vn 0.444894 0.646974 0.619269
vn 0.768623 0.562347 0.304936
vn 0.882209 0.454290 -0.123807
vn 0.434107 0.741864 -0.511066
vn 0.216431 0.701159 -0.679363
vn -0.038679 0.691248 -0.721582
vn -0.290077 0.704937 -0.647239
vn -0.482820 0.752546 -0.447839
vn -0.545250 0.822415 -0.162282
vn -0.452450 0.886441 0.097528
vn -0.220497 0.935255 0.276909
vn 0.041205 0.944163 0.326893
vn 0.294323 0.923513 0.245962
vn 0.492993 0.869552 0.028950
vn 0.544946 0.803008 -0.241270
vn 0.000000 0.968390 -0.249442
# 455 normals

g Regroup00
usemtl Material01
s 1
f 3/1/1 2/2/2 1/3/3
f 3/1/1 4/4/4 2/2/2
f 5/5/5 4/4/4 3/1/1
f 5/5/5 6/6/6 4/4/4
f 7/7/7 6/6/6 5/5/5
f 7/7/7 8/8/8 6/6/6
f 9/7/9 6/6/6 8/8/8
f 9/7/9 10/5/10 6/6/6
f 11/9/11 10/5/10 9/7/9
f 11/9/11 12/10/12 10/5/10
f 13/11/13 12/10/12 11/9/11
f 13/11/13 14/12/14 12/10/12
f 15/9/15 14/12/14 13/11/13
f 15/9/15 16/10/16 14/12/14
f 7/7/7 16/10/16 15/9/15
f 7/7/7 5/5/5 16/10/16
f 3/1/1 16/10/16 5/5/5
f 3/1/1 17/13/17 16/10/16
f 18/14/18 17/13/17 3/1/1
f 18/14/18 19/15/19 17/13/17
f 20/16/20 17/13/17 19/15/19
f 20/16/20 21/17/21 17/13/17
f 22/18/22 21/17/21 20/16/20
f 22/18/22 23/13/23 21/17/21
f 24/19/24 23/13/23 22/18/22
f 24/19/24 25/1/25 23/13/23
f 2/2/2 25/1/25 24/19/24
f 2/2/2 4/4/4 25/1/25
f 21/17/21 16/10/16 17/13/17
f 21/17/21 14/12/14 16/10/16
f 23/13/23 14/12/14 21/17/21
f 23/13/23 12/10/12 14/12/14
f 25/1/25 12/10/12 23/13/23
f 25/1/25 10/5/10 12/10/12
f 4/4/4 10/5/10 25/1/25
f 4/4/4 6/6/6 10/5/10
f 28/20/26 27/21/27 26/22/28
f 28/20/26 29/23/29 27/21/27
f 30/22/30 29/23/29 28/20/26
f 30/22/30 31/21/31 29/23/29
f 32/24/32 31/21/31 30/22/30
f 32/24/32 33/25/33 31/21/31
f 34/26/34 33/25/33 32/24/32
f 34/26/34 35/27/35 33/25/33
f 36/28/36 35/27/35 34/26/34
f 36/28/36 37/29/37 35/27/35
f 38/30/38 37/29/37 36/28/36
f 38/30/38 39/31/39 37/29/37
f 40/32/40 39/31/39 38/30/38
f 40/32/40 41/33/41 39/31/39
f 42/34/42 41/33/41 40/32/40
f 42/34/42 43/31/43 41/33/41
f 44/32/44 43/31/43 42/34/42
f 44/32/44 45/30/45 43/31/43
f 46/35/46 45/30/45 44/32/44
f 46/35/46 47/36/47 45/30/45
f 48/37/48 47/36/47 46/35/46
f 48/37/48 49/38/49 47/36/47
f 50/24/50 49/38/49 48/37/48
f 51/37/51 32/24/32 30/22/30
f 51/37/51 52/38/52 32/24/32
f 53/35/53 52/38/52 51/37/51
f 53/35/53 54/36/54 52/38/52
f 38/30/38 54/36/54 53/35/53
f 38/30/38 11/39/11 54/36/54
f 13/39/13 11/39/11 38/30/38
f 32/24/32 7/40/7 34/26/34
f 32/24/32 8/41/8 7/40/7
f 52/38/52 8/41/8 32/24/32
f 52/38/52 9/42/9 8/41/8
f 54/36/54 9/42/9 52/38/52
f 54/36/54 11/39/11 9/42/9
f 1/3/3 18/14/18 3/1/1
f 57/26/55 56/25/56 55/27/57
f 56/25/56 57/26/55 50/24/50
f 58/29/58 57/26/55 55/27/57
f 57/26/55 58/29/58 59/28/59
f 45/30/45 59/28/59 58/29/58
f 50/24/50 27/21/27 56/25/56
f 27/21/27 50/24/50 26/22/28
f 48/37/48 26/22/28 50/24/50
f 58/29/58 43/31/43 45/30/45
f 38/30/38 53/35/53 40/32/40
f 38/30/38 15/43/15 13/39/13
f 15/43/15 38/30/38 36/28/36
f 36/28/36 7/40/7 15/43/15
f 7/40/7 36/28/36 34/26/34
f 62/44/60 61/45/61 60/46/62
f 62/44/60 63/47/63 61/45/61
f 64/48/64 63/47/63 62/44/60
f 64/48/64 65/49/65 63/47/63
f 66/50/66 65/49/65 64/48/64
f 66/50/66 67/51/67 65/49/65
f 68/52/68 67/51/67 66/50/66
f 68/52/68 69/53/69 67/51/67
f 70/54/70 69/53/69 68/52/68
f 70/54/70 71/55/71 69/53/69
f 72/56/72 71/55/71 70/54/70
f 72/56/72 73/57/73 71/55/71
f 74/58/74 73/57/73 72/56/72
f 74/58/74 75/59/75 73/57/73
f 76/60/76 75/59/75 74/58/74
f 76/60/76 77/61/77 75/59/75
f 72/56/72 76/60/76 74/58/74
f 72/56/72 78/62/78 76/60/76
f 70/54/70 78/62/78 72/56/72
f 70/54/70 79/63/79 78/62/78
f 68/52/68 79/63/79 70/54/70
f 68/52/68 80/64/80 79/63/79
f 81/65/81 80/64/80 68/52/68
f 81/65/81 82/66/82 80/64/80
f 84/67/83 73/57/73 83/68/84
f 84/67/83 71/55/71 73/57/73
f 85/69/85 71/55/71 84/67/83
f 85/69/85 69/53/69 71/55/71
f 86/70/86 69/53/69 85/69/85
f 86/70/86 67/51/67 69/53/69
f 87/71/87 67/51/67 86/70/86
f 87/71/87 65/49/65 67/51/67
f 63/47/63 88/72/88 61/45/61
f 63/47/63 89/73/89 88/72/88
f 65/49/65 89/73/89 63/47/63
f 65/49/65 90/74/90 89/73/89
f 91/75/91 80/64/80 82/66/82
f 91/75/91 92/76/92 80/64/80
f 93/77/93 92/76/92 91/75/91
f 93/77/93 94/78/94 92/76/92
f 86/79/86 94/78/94 93/77/93
f 86/79/86 95/80/95 94/78/94
f 85/81/85 95/80/95 86/79/86
f 85/81/85 96/82/96 95/80/95
f 84/83/83 96/82/96 85/81/85
f 84/83/83 97/84/97 96/82/96
f 83/85/84 97/84/97 84/83/83
f 83/85/84 98/86/98 97/84/97
f 77/87/77 98/86/98 83/85/84
f 77/87/77 99/88/99 98/86/98
f 76/89/76 99/88/99 77/87/77
f 76/89/76 100/90/100 99/88/99
f 78/91/78 100/90/100 76/89/76
f 78/91/78 101/92/101 100/90/100
f 79/63/79 101/92/101 78/91/78
f 79/63/79 92/76/92 101/92/101
f 80/64/80 92/76/92 79/63/79
f 60/93/62 86/79/86 93/77/93
f 60/93/62 87/94/87 86/79/86
f 61/95/61 87/94/87 60/93/62
f 61/95/61 102/96/102 87/94/87
f 88/97/88 102/96/102 61/95/61
f 88/97/88 103/98/103 102/96/102
f 82/99/82 24/19/24 91/100/91
f 82/99/82 2/2/2 24/19/24
f 81/101/81 2/2/2 82/99/82
f 81/101/81 1/3/3 2/2/2
f 104/102/104 1/3/3 81/101/81
f 104/102/104 18/14/18 1/3/3
f 105/103/105 18/14/18 104/102/104
f 105/103/105 64/104/64 18/14/18
f 77/61/77 73/57/73 75/59/75
f 73/57/73 77/61/77 83/68/84
f 105/105/105 66/50/66 64/48/64
f 66/50/66 105/105/105 104/106/104
f 104/106/104 68/52/68 66/50/66
f 68/52/68 104/106/104 81/65/81
f 89/73/89 103/107/103 88/72/88
f 103/107/103 89/73/89 90/74/90
f 94/78/94 101/92/101 92/76/92
f 101/92/101 94/78/94 95/80/95
f 95/80/95 100/90/100 101/92/101
f 100/90/100 95/80/95 96/82/96
f 98/86/98 96/82/96 97/84/97
f 96/82/96 98/86/98 100/90/100
f 99/88/99 100/90/100 98/86/98
f 87/94/87 90/108/90 65/109/65
f 90/108/90 87/94/87 102/96/102
f 102/96/102 103/98/103 90/108/90
f 93/110/93 24/19/24 22/18/22
f 24/19/24 93/110/93 91/100/91
f 22/18/22 60/111/62 93/110/93
f 60/111/62 22/18/22 20/16/20
f 19/15/19 60/111/62 20/16/20
f 60/111/62 19/15/19 62/112/60
f 64/104/64 62/112/60 19/15/19
f 18/14/18 64/104/64 19/15/19
f 108/2/106 107/1/107 106/3/108
f 108/2/106 109/4/109 107/1/107
f 110/19/110 109/4/109 108/2/106
f 110/19/110 111/1/111 109/4/109
f 112/18/112 111/1/111 110/19/110
f 112/18/112 113/13/113 111/1/111
f 114/16/114 113/13/113 112/18/112
f 114/16/114 115/17/115 113/13/113
f 116/15/116 115/17/115 114/16/114
f 116/15/116 117/13/117 115/17/115
f 118/14/118 117/13/117 116/15/116
f 118/14/118 107/1/107 117/13/117
f 59/28/59 119/40/119 57/26/55
f 59/28/59 120/43/120 119/40/119
f 45/30/45 120/43/120 59/28/59
f 45/30/45 121/39/121 120/43/120
f 47/36/47 121/39/121 45/30/45
f 47/36/47 122/39/122 121/39/121
f 49/38/49 122/39/122 47/36/47
f 49/38/49 123/42/123 122/39/122
f 50/24/50 123/42/123 49/38/49
f 50/24/50 124/41/124 123/42/123
f 57/26/55 124/41/124 50/24/50
f 57/26/55 119/40/119 124/41/124
f 107/1/107 125/10/125 117/13/117
f 107/1/107 126/5/126 125/10/125
f 109/4/109 126/5/126 107/1/107
f 109/4/109 127/6/127 126/5/126
f 111/1/111 127/6/127 109/4/109
f 111/1/111 128/5/128 127/6/127
f 129/10/129 128/5/128 111/1/111
f 129/10/129 123/113/123 128/5/128
f 122/114/122 123/113/123 129/10/129
f 113/13/113 129/10/129 111/1/111
f 113/13/113 130/12/130 129/10/129
f 115/17/115 130/12/130 113/13/113
f 115/17/115 125/10/125 130/12/130
f 117/13/117 125/10/125 115/17/115
f 130/12/130 122/114/122 129/10/129
f 130/12/130 121/115/121 122/114/122
f 125/10/125 121/115/121 130/12/130
f 125/10/125 120/114/120 121/115/121
f 118/14/118 106/3/108 107/1/107
f 123/113/123 127/6/127 128/5/128
f 127/6/127 123/113/123 124/116/124
f 124/116/124 126/5/126 127/6/127
f 126/5/126 124/116/124 119/113/119
f 119/113/119 125/10/125 126/5/126
f 125/10/125 119/113/119 120/114/120
f 133/45/131 132/44/132 131/46/133
f 133/45/131 134/47/134 132/44/132
f 135/72/135 134/47/134 133/45/131
f 135/72/135 136/73/136 134/47/134
f 137/107/137 136/73/136 135/72/135
f 137/107/137 138/74/138 136/73/136
f 134/47/134 139/48/139 132/44/132
f 134/47/134 140/49/140 139/48/139
f 136/73/136 140/49/140 134/47/134
f 136/73/136 138/74/138 140/49/140
f 142/70/141 140/49/140 141/71/142
f 142/70/141 143/51/143 140/49/140
f 144/69/144 143/51/143 142/70/141
f 144/69/144 145/53/145 143/51/143
f 146/67/146 145/53/145 144/69/144
f 146/67/146 147/55/147 145/53/145
f 148/68/148 147/55/147 146/67/146
f 148/68/148 149/57/149 147/55/147
f 150/61/150 149/57/149 148/68/148
f 150/61/150 151/59/151 149/57/149
f 152/60/152 151/59/151 150/61/150
f 152/60/152 153/58/153 151/59/151
f 154/62/154 153/58/153 152/60/152
f 154/62/154 155/56/155 153/58/153
f 156/63/156 155/56/155 154/62/154
f 156/63/156 157/54/157 155/56/155
f 158/64/158 157/54/157 156/63/156
f 158/64/158 159/52/159 157/54/157
f 160/65/160 159/52/159 158/64/158
f 160/65/160 161/106/161 159/52/159
f 153/58/153 149/57/149 151/59/151
f 153/58/153 147/55/147 149/57/149
f 155/56/155 147/55/147 153/58/153
f 155/56/155 145/53/145 147/55/147
f 157/54/157 145/53/145 155/56/155
f 157/54/157 143/51/143 145/53/145
f 159/52/159 143/51/143 157/54/157
f 159/52/159 162/50/162 143/51/143
f 161/106/161 162/50/162 159/52/159
f 161/106/161 163/105/163 162/50/162
f 158/64/158 164/66/164 160/65/160
f 158/64/158 165/75/165 164/66/164
f 166/76/166 165/75/165 158/64/158
f 166/76/166 167/77/167 165/75/165
f 168/78/168 167/77/167 166/76/166
f 168/78/168 142/79/141 167/77/167
f 169/80/169 142/79/141 168/78/168
f 169/80/169 144/81/144 142/79/141
f 170/82/170 144/81/144 169/80/169
f 170/82/170 146/83/146 144/81/144
f 171/84/171 146/83/146 170/82/170
f 171/84/171 148/85/148 146/83/146
f 172/86/172 148/85/148 171/84/171
f 172/86/172 150/87/150 148/85/148
f 173/88/173 150/87/150 172/86/172
f 173/88/173 152/89/152 150/87/150
f 174/90/174 152/89/152 173/88/173
f 174/90/174 154/91/154 152/89/152
f 175/92/175 154/91/154 174/90/174
f 175/92/175 156/63/156 154/91/154
f 166/76/166 156/63/156 175/92/175
f 166/76/166 158/64/158 156/63/156
f 175/92/175 168/78/168 166/76/166
f 175/92/175 169/80/169 168/78/168
f 174/90/174 169/80/169 175/92/175
f 174/90/174 170/82/170 169/80/169
f 172/86/172 170/82/170 174/90/174
f 172/86/172 171/84/171 170/82/170
f 141/94/142 133/95/131 131/93/133
f 141/94/142 135/97/135 133/95/131
f 176/96/176 135/97/135 141/94/142
f 176/96/176 137/98/137 135/97/135
f 138/108/138 137/98/137 176/96/176
f 112/18/112 131/111/133 114/16/114
f 112/18/112 167/110/167 131/111/133
f 110/19/110 167/110/167 112/18/112
f 110/19/110 165/100/165 167/110/167
f 108/2/106 165/100/165 110/19/110
f 108/2/106 164/99/164 165/100/165
f 160/101/160 164/99/164 108/2/106
f 106/3/108 160/101/160 108/2/106
f 106/3/108 161/102/161 160/101/160
f 118/14/118 161/102/161 106/3/108
f 118/14/118 163/103/163 161/102/161
f 139/104/139 163/103/163 118/14/118
f 132/112/132 114/16/114 131/111/133
f 132/112/132 116/15/116 114/16/114
f 139/104/139 116/15/116 132/112/132
f 139/104/139 118/14/118 116/15/116
f 139/48/139 162/50/162 163/105/163
f 162/50/162 139/48/139 140/49/140
f 140/49/140 143/51/143 162/50/162
f 174/90/174 173/88/173 172/86/172
f 142/79/141 131/93/133 167/77/167
f 131/93/133 142/79/141 141/94/142
f 141/94/142 138/108/138 176/96/176
f 138/108/138 141/94/142 140/109/140
f 179/117/177 178/118/178 177/119/179
f 179/117/177 180/120/180 178/118/178
f 181/121/181 180/120/180 179/117/177
f 181/121/181 182/122/182 180/120/180
f 183/123/183 182/122/182 181/121/181
f 183/123/183 184/124/184 182/122/182
f 185/125/185 184/124/184 183/123/183
f 185/125/185 186/126/186 184/124/184
f 187/127/187 186/126/186 185/125/185
f 187/127/187 188/128/188 186/126/186
f 179/129/177 189/130/189 181/131/181
f 179/129/177 190/132/190 189/130/189
f 177/133/179 190/132/190 179/129/177
f 177/133/179 191/134/191 190/132/190
f 178/135/178 191/134/191 177/133/179
f 178/135/178 192/136/192 191/134/191
f 193/137/193 192/136/192 178/135/178
f 193/137/193 194/138/194 192/136/192
f 195/139/195 194/138/194 193/137/193
f 195/139/195 196/136/196 194/138/194
f 197/137/197 196/136/196 195/139/195
f 197/137/197 198/135/198 196/136/196
f 199/140/199 198/135/198 197/137/197
f 180/140/180 193/137/193 178/135/178
f 180/140/180 195/139/195 193/137/193
f 200/141/200 195/139/195 180/140/180
f 200/141/200 197/137/197 195/139/195
f 199/140/199 197/137/197 200/141/200
f 203/130/201 202/129/202 201/131/203
f 203/130/201 204/132/204 202/129/202
f 205/142/205 204/132/204 203/130/201
f 205/142/205 206/143/206 204/132/204
f 207/144/207 206/143/206 205/142/205
f 207/144/207 208/145/208 206/143/206
f 209/146/209 208/145/208 207/144/207
f 209/146/209 210/147/210 208/145/208
f 211/148/211 210/147/210 209/146/209
f 211/148/211 212/146/212 210/147/210
f 182/122/182 200/149/200 180/120/180
f 182/122/182 199/120/199 200/149/200
f 201/121/203 199/120/199 182/122/182
f 201/121/203 202/117/202 199/120/199
f 213/127/213 186/126/186 188/128/188
f 213/127/213 214/125/214 186/126/186
f 215/150/215 214/125/214 213/127/213
f 215/150/215 216/151/216 214/125/214
f 217/152/217 216/151/216 215/150/215
f 217/152/217 218/153/218 216/151/216
f 219/154/219 218/153/218 217/152/217
f 219/154/219 220/155/220 218/153/218
f 221/156/221 220/155/220 219/154/219
f 221/156/221 222/157/222 220/155/220
f 223/158/223 222/157/222 221/156/221
f 223/158/223 224/159/224 222/157/222
f 225/156/225 224/159/224 223/158/223
f 225/156/225 226/157/226 224/159/224
f 227/154/227 226/157/226 225/156/225
f 227/154/227 228/155/228 226/157/226
f 229/152/229 228/155/228 227/154/227
f 229/152/229 230/153/230 228/155/228
f 231/150/231 230/153/230 229/152/229
f 231/150/231 232/151/232 230/153/230
f 187/127/187 232/151/232 231/150/231
f 187/127/187 185/125/185 232/151/232
f 183/123/183 232/151/232 185/125/185
f 183/123/183 233/160/233 232/151/232
f 181/121/181 233/160/233 183/123/183
f 181/121/181 189/161/189 233/160/233
f 234/162/234 228/155/228 230/153/230
f 234/162/234 226/157/226 228/155/228
f 212/163/212 226/157/226 234/162/234
f 212/163/212 224/159/224 226/157/226
f 211/164/211 224/159/224 212/163/212
f 211/164/211 222/157/222 224/159/224
f 209/163/209 222/157/222 211/164/211
f 209/163/209 220/155/220 222/157/222
f 207/162/207 220/155/220 209/163/209
f 207/162/207 218/153/218 220/155/220
f 205/165/205 218/153/218 207/162/207
f 205/165/205 203/161/201 218/153/218
f 190/132/190 235/142/235 189/130/189
f 190/132/190 236/143/236 235/142/235
f 237/166/237 236/143/236 190/132/190
f 237/166/237 238/167/238 236/143/236
f 239/168/239 238/167/238 237/166/237
f 239/168/239 206/143/206 238/167/238
f 240/166/240 206/143/206 239/168/239
f 240/166/240 204/132/204 206/143/206
f 241/134/241 204/132/204 240/166/240
f 241/134/241 242/133/242 204/132/204
f 198/135/198 242/133/242 241/134/241
f 194/138/194 237/166/237 192/136/192
f 194/138/194 239/168/239 237/166/237
f 196/136/196 239/168/239 194/138/194
f 196/136/196 240/166/240 239/168/239
f 241/134/241 240/166/240 196/136/196
f 208/145/208 238/167/238 206/143/206
f 208/145/208 243/169/243 238/167/238
f 210/147/210 243/169/243 208/145/208
f 210/147/210 244/145/244 243/169/243
f 212/146/212 244/145/244 210/147/210
f 212/146/212 234/144/234 244/145/244
f 214/125/214 184/124/184 186/126/186
f 214/125/214 245/123/245 184/124/184
f 216/151/216 245/123/245 214/125/214
f 216/151/216 246/160/246 245/123/245
f 218/153/218 246/160/246 216/151/216
f 218/153/218 203/161/201 246/160/246
f 201/121/203 246/160/246 203/161/201
f 201/121/203 245/123/245 246/160/246
f 182/122/182 245/123/245 201/121/203
f 182/122/182 184/124/184 245/123/245
f 247/170/247 227/171/227 225/172/225
f 247/170/247 229/173/229 227/171/227
f 248/174/248 229/173/229 247/170/247
f 248/174/248 231/175/231 229/173/229
f 187/176/187 231/175/231 248/174/248
f 219/177/219 247/170/247 221/178/221
f 219/177/219 248/174/248 247/170/247
f 217/179/217 248/174/248 219/177/219
f 217/179/217 215/180/215 248/174/248
f 198/118/198 202/117/202 242/119/242
f 202/117/202 198/118/198 199/120/199
f 233/160/233 230/153/230 232/151/232
f 230/153/230 233/160/233 189/161/189
f 235/165/235 230/153/230 189/161/189
f 230/153/230 235/165/235 234/162/234
f 204/132/204 242/133/242 202/129/202
f 191/134/191 237/166/237 190/132/190
f 237/166/237 191/134/191 192/136/192
f 198/135/198 241/134/241 196/136/196
f 243/169/243 236/143/236 238/167/238
f 236/143/236 243/169/243 244/145/244
f 244/145/244 235/142/235 236/143/236
f 235/142/235 244/145/244 234/144/234
f 223/181/223 247/170/247 225/172/225
f 247/170/247 223/181/223 221/178/221
f 248/174/248 188/182/188 187/176/187
f 188/182/188 248/174/248 213/183/213
f 215/180/215 213/183/213 248/174/248
f 249/184/249 33/25/33 35/27/35
f 249/184/249 31/21/31 33/25/33
f 250/185/250 31/21/31 249/184/249
f 250/185/250 29/23/29 31/21/31
f 251/186/251 29/23/29 250/185/250
f 251/186/251 27/21/27 29/23/29
f 252/185/252 27/21/27 251/186/251
f 252/185/252 56/25/56 27/21/27
f 253/184/253 56/25/56 252/185/252
f 253/184/253 55/27/57 56/25/56
f 58/29/58 55/27/57 253/184/253
f 37/29/37 249/184/249 35/27/35
f 37/29/37 254/187/254 249/184/249
f 39/31/39 254/187/254 37/29/37
f 39/31/39 255/188/255 254/187/254
f 41/33/41 255/188/255 39/31/39
f 41/33/41 256/187/256 255/188/255
f 43/31/43 256/187/256 41/33/41
f 43/31/43 253/184/253 256/187/256
f 58/29/58 253/184/253 43/31/43
f 258/189/257 249/184/249 257/190/258
f 258/189/257 250/185/250 249/184/249
f 259/191/259 250/185/250 258/189/257
f 259/191/259 251/186/251 250/185/250
f 260/189/260 251/186/251 259/191/259
f 260/189/260 252/185/252 251/186/251
f 261/190/261 252/185/252 260/189/260
f 261/190/261 253/184/253 252/185/252
f 262/192/262 253/184/253 261/190/261
f 262/192/262 256/187/256 253/184/253
f 263/193/263 256/187/256 262/192/262
f 263/193/263 255/188/255 256/187/256
f 264/192/264 255/188/255 263/193/263
f 264/192/264 254/187/254 255/188/255
f 44/32/44 265/194/265 46/35/46
f 44/32/44 266/195/266 265/194/265
f 42/34/42 266/195/266 44/32/44
f 42/34/42 40/32/40 266/195/266
f 265/194/265 48/37/48 46/35/46
f 265/194/265 267/196/267 48/37/48
f 266/195/266 267/196/267 265/194/265
f 266/195/266 268/197/268 267/196/267
f 269/194/269 268/197/268 266/195/266
f 269/194/269 270/196/270 268/197/268
f 51/37/51 270/196/270 269/194/269
f 51/37/51 30/22/30 270/196/270
f 264/192/264 249/184/249 254/187/254
f 249/184/249 264/192/264 257/190/258
f 40/32/40 269/194/269 266/195/266
f 269/194/269 40/32/40 53/35/53
f 269/194/269 53/35/53 51/37/51
f 267/196/267 26/22/28 48/37/48
f 26/22/28 267/196/267 268/197/268
f 268/197/268 28/20/26 26/22/28
f 28/20/26 268/197/268 30/22/30
f 270/196/270 30/22/30 268/197/268
# 526 triangles in group

g Regroup01
usemtl Material01
f 273/198/271 272/199/272 271/199/273
f 273/198/271 274/200/274 272/199/272
f 275/201/275 274/200/274 273/198/271
f 275/201/275 276/202/276 274/200/274
f 277/203/277 276/202/276 275/201/275
f 277/203/277 278/204/278 276/202/276
f 279/205/279 278/204/278 277/203/277
f 279/205/279 280/206/280 278/204/278
f 281/207/281 280/206/280 279/205/279
f 281/207/281 282/206/282 280/206/280
f 283/206/283 282/206/282 281/207/281
f 283/206/283 284/204/284 282/206/282
f 285/204/285 284/204/284 283/206/283
f 285/204/285 286/202/286 284/204/284
f 287/202/287 286/202/286 285/204/285
f 287/202/287 288/200/288 286/202/286
f 289/200/289 288/200/288 287/202/287
f 289/200/289 290/199/290 288/200/288
f 291/199/291 290/199/290 289/200/289
f 274/200/274 290/199/290 272/199/272
f 274/200/274 288/200/288 290/199/290
f 276/202/276 288/200/288 274/200/274
f 276/202/276 286/202/286 288/200/288
f 278/204/278 286/202/286 276/202/276
f 278/204/278 284/204/284 286/202/286
f 280/206/280 284/204/284 278/204/278
f 280/206/280 282/206/282 284/204/284
f 292/199/292 273/198/271 271/199/273
f 292/199/292 293/208/293 273/198/271
f 294/209/294 293/208/293 292/199/292
f 294/209/294 295/210/295 293/208/293
f 296/209/296 295/210/295 294/209/294
f 296/209/296 297/211/297 295/210/295
f 298/209/298 297/211/297 296/209/296
f 298/209/298 299/211/299 297/211/297
f 300/209/300 299/211/299 298/209/298
f 300/209/300 301/211/301 299/211/299
f 302/209/302 301/211/301 300/209/300
f 302/209/302 303/210/303 301/211/301
f 304/199/304 303/210/303 302/209/302
f 304/199/304 305/208/305 303/210/303
f 306/199/306 305/208/305 304/199/304
f 306/199/306 307/198/307 305/208/305
f 291/199/291 307/198/307 306/199/306
f 291/199/291 289/200/289 307/198/307
f 293/208/293 275/201/275 273/198/271
f 293/208/293 308/212/308 275/201/275
f 295/210/295 308/212/308 293/208/293
f 295/210/295 309/213/309 308/212/308
f 297/211/297 309/213/309 295/210/295
f 297/211/297 310/214/310 309/213/309
f 299/211/299 310/214/310 297/211/297
f 299/211/299 311/214/311 310/214/310
f 301/211/301 311/214/311 299/211/299
f 301/211/301 312/214/312 311/214/311
f 303/210/303 312/214/312 301/211/301
f 303/210/303 313/213/313 312/214/312
f 305/208/305 313/213/313 303/210/303
f 305/208/305 314/212/314 313/213/313
f 307/198/307 314/212/314 305/208/305
f 307/198/307 315/201/315 314/212/314
f 289/200/289 315/201/315 307/198/307
f 289/200/289 287/202/287 315/201/315
f 308/212/308 277/203/277 275/201/275
f 308/212/308 316/215/316 277/203/277
f 309/213/309 316/215/316 308/212/308
f 309/213/309 317/216/317 316/215/316
f 310/214/310 317/216/317 309/213/309
f 310/214/310 318/217/318 317/216/317
f 311/214/311 318/217/318 310/214/310
f 311/214/311 319/217/319 318/217/318
f 312/214/312 319/217/319 311/214/311
f 312/214/312 320/217/320 319/217/319
f 313/213/313 320/217/320 312/214/312
f 313/213/313 321/216/321 320/217/320
f 314/212/314 321/216/321 313/213/313
f 314/212/314 322/215/322 321/216/321
f 315/201/315 322/215/322 314/212/314
f 315/201/315 323/203/323 322/215/322
f 287/202/287 323/203/323 315/201/315
f 287/202/287 285/204/285 323/203/323
f 316/215/316 279/205/279 277/203/277
f 316/215/316 324/218/324 279/205/279
f 317/216/317 324/218/324 316/215/316
f 317/216/317 325/219/325 324/218/324
f 318/217/318 325/219/325 317/216/317
f 318/217/318 326/220/326 325/219/325
f 319/217/319 326/220/326 318/217/318
f 319/217/319 327/220/327 326/220/326
f 320/217/320 327/220/327 319/217/319
f 320/217/320 328/220/328 327/220/327
f 321/216/321 328/220/328 320/217/320
f 321/216/321 329/219/329 328/220/328
f 322/215/322 329/219/329 321/216/321
f 322/215/322 330/218/330 329/219/329
f 323/203/323 330/218/330 322/215/322
f 323/203/323 331/205/331 330/218/330
f 285/204/285 331/205/331 323/203/323
f 285/204/285 283/206/283 331/205/331
f 324/218/324 281/207/281 279/205/279
f 281/207/281 324/218/324 325/219/325
f 281/207/281 331/205/331 283/206/283
f 331/205/331 281/207/281 330/218/330
f 329/219/329 330/218/330 281/207/281
f 326/220/326 281/207/281 325/219/325
f 281/207/281 326/220/326 327/220/327
f 328/220/328 281/207/281 327/220/327
f 281/207/281 328/220/328 329/219/329
# 108 triangles in group

g Regroup02
usemtl Material02
f 334/221/332 333/222/333 332/223/334
f 334/221/332 335/224/335 333/222/333
f 336/223/336 335/224/335 334/221/332
f 336/223/336 337/222/337 335/224/335
f 338/225/338 337/222/337 336/223/336
f 338/225/338 339/226/339 337/222/337
f 340/227/340 339/226/339 338/225/338
f 340/227/340 341/228/341 339/226/339
f 342/229/342 341/228/341 340/227/340
f 342/229/342 343/230/343 341/228/341
f 344/231/344 343/230/343 342/229/342
f 344/231/344 345/232/345 343/230/343
f 346/233/346 345/232/345 344/231/344
f 346/233/346 347/230/347 345/232/345
f 348/231/348 347/230/347 346/233/346
f 335/224/335 347/230/347 333/222/333
f 335/224/335 345/232/345 347/230/347
f 337/222/337 345/232/345 335/224/335
f 337/222/337 343/230/343 345/232/345
f 339/226/339 343/230/343 337/222/337
f 339/226/339 341/228/341 343/230/343
f 349/234/349 334/221/332 332/223/334
f 349/234/349 350/235/350 334/221/332
f 351/236/351 350/235/350 349/234/349
f 351/236/351 352/237/352 350/235/350
f 353/238/353 352/237/352 351/236/351
f 353/238/353 354/239/354 352/237/352
f 355/240/355 354/239/354 353/238/353
f 355/240/355 356/241/356 354/239/354
f 348/231/348 356/241/356 355/240/355
f 348/231/348 346/233/346 356/241/356
f 350/235/350 336/223/336 334/221/332
f 350/235/350 357/234/357 336/223/336
f 352/237/352 357/234/357 350/235/350
f 352/237/352 358/236/358 357/234/357
f 354/239/354 358/236/358 352/237/352
f 354/239/354 359/238/359 358/236/358
f 356/241/356 359/238/359 354/239/354
f 356/241/356 360/240/360 359/238/359
f 346/233/346 360/240/360 356/241/356
f 346/233/346 344/231/344 360/240/360
f 357/234/357 338/225/338 336/223/336
f 357/234/357 361/242/361 338/225/338
f 358/236/358 361/242/361 357/234/357
f 358/236/358 362/243/362 361/242/361
f 359/238/359 362/243/362 358/236/358
f 359/238/359 363/244/363 362/243/362
f 360/240/360 363/244/363 359/238/359
f 360/240/360 364/245/364 363/244/363
f 344/231/344 364/245/364 360/240/360
f 344/231/344 342/229/342 364/245/364
f 361/242/361 340/227/340 338/225/338
f 340/227/340 361/242/361 362/243/362
f 363/244/363 340/227/340 362/243/362
f 340/227/340 363/244/363 364/245/364
f 364/245/364 342/229/342 340/227/340
# 56 triangles in group

g Regroup03
usemtl Material02
f 367/222/365 366/221/366 365/223/367
f 367/222/365 368/224/350 366/221/366
f 369/230/368 368/224/350 367/222/365
f 369/230/368 370/232/352 368/224/350
f 371/231/369 370/232/352 369/230/368
f 371/231/369 372/233/354 370/232/352
f 373/240/370 372/233/354 371/231/369
f 373/240/370 374/241/356 372/233/354
f 375/238/371 374/241/356 373/240/370
f 375/238/371 376/239/346 374/241/356
f 377/236/372 376/239/346 375/238/371
f 377/236/372 378/237/373 376/239/346
f 379/234/374 378/237/373 377/236/372
f 379/234/374 380/235/335 378/237/373
f 365/223/367 380/235/335 379/234/374
f 365/223/367 366/221/366 380/235/335
f 366/221/366 381/234/375 380/235/335
f 366/221/366 382/223/376 381/234/375
f 368/224/350 382/223/376 366/221/366
f 368/224/350 383/222/357 382/223/376
f 370/232/352 383/222/357 368/224/350
f 370/232/352 384/230/358 383/222/357
f 372/233/354 384/230/358 370/232/352
f 372/233/354 385/231/359 384/230/358
f 374/241/356 385/231/359 372/233/354
f 374/241/356 386/240/360 385/231/359
f 376/239/346 386/240/360 374/241/356
f 376/239/346 387/238/344 386/240/360
f 378/237/373 387/238/344 376/239/346
f 378/237/373 388/236/377 387/238/344
f 380/235/335 388/236/377 378/237/373
f 380/235/335 381/234/375 388/236/377
f 382/223/376 389/242/378 381/234/375
f 382/223/376 390/225/379 389/242/378
f 383/222/357 390/225/379 382/223/376
f 383/222/357 391/226/361 390/225/379
f 384/230/358 391/226/361 383/222/357
f 384/230/358 392/228/362 391/226/361
f 385/231/359 392/228/362 384/230/358
f 385/231/359 393/229/363 392/228/362
f 386/240/360 393/229/363 385/231/359
f 386/240/360 394/245/364 393/229/363
f 387/238/344 394/245/364 386/240/360
f 387/238/344 395/244/342 394/245/364
f 388/236/377 395/244/342 387/238/344
f 388/236/377 396/243/380 395/244/342
f 381/234/375 396/243/380 388/236/377
f 381/234/375 389/242/378 396/243/380
f 390/225/379 397/227/340 389/242/378
f 397/227/340 390/225/379 391/226/361
f 392/228/362 397/227/340 391/226/361
f 397/227/340 392/228/362 393/229/363
f 397/227/340 396/243/380 389/242/378
f 396/243/380 397/227/340 395/244/342
f 394/245/364 395/244/342 397/227/340
f 394/245/364 397/227/340 393/229/363
# 56 triangles in group

g Regroup04
usemtl Material04
f 400/246/381 399/247/382 398/248/383
f 400/246/381 401/249/384 399/247/382
f 441/250/385 401/249/384 400/246/381
f 441/250/385 442/251/386 401/249/384
f 398/246/383 442/251/386 441/250/385
f 398/246/383 399/249/382 442/251/386
f 404/246/387 403/252/388 402/253/389
f 404/246/387 405/249/390 403/252/388
f 443/250/391 405/249/390 404/246/387
f 443/250/391 442/251/386 405/249/390
f 402/246/389 442/251/386 443/250/391
f 402/246/389 403/249/388 442/251/386
f 402/246/389 444/254/392 404/253/387
f 402/246/389 445/255/393 444/254/392
f 443/250/391 445/255/393 402/246/389
f 443/250/391 404/246/387 445/255/393
f 398/246/383 446/254/394 400/248/381
f 398/246/383 447/255/395 446/254/394
f 441/250/385 447/255/395 398/246/383
f 441/250/385 400/246/381 447/255/395
f 442/256/386 406/257/396 405/258/390
f 406/257/396 442/256/386 399/259/382
f 407/257/397 442/256/386 403/258/388
f 442/256/386 407/257/397 401/259/384
f 404/246/387 444/254/392 445/255/393
f 400/246/381 446/254/394 447/255/395
f 409/260/398 406/257/396 408/261/399
f 409/260/398 405/258/390 406/257/396
f 410/262/400 405/258/390 409/260/398
f 410/262/400 403/258/388 405/258/390
f 411/260/401 403/258/388 410/262/400
f 411/260/401 407/257/397 403/258/388
f 412/261/402 407/257/397 411/260/401
f 412/261/402 401/259/384 407/257/397
f 413/263/403 401/259/384 412/261/402
f 413/263/403 414/264/404 401/259/384
f 399/259/382 408/261/399 406/257/396
f 408/261/399 399/259/382 415/263/405
f 414/264/404 415/263/405 399/259/382
f 414/264/404 399/259/382 401/259/384
f 417/265/406 409/260/398 416/266/407
f 417/265/406 410/262/400 409/260/398
f 418/266/408 410/262/400 417/265/406
f 418/266/408 411/260/401 410/262/400
f 419/267/409 411/260/401 418/266/408
f 419/267/409 412/261/402 411/260/401
f 420/268/410 412/261/402 419/267/409
f 420/268/410 413/263/403 412/261/402
f 421/269/411 413/263/403 420/268/410
f 421/269/411 414/264/404 413/263/403
f 422/268/412 414/264/404 421/269/411
f 422/268/412 415/263/405 414/264/404
f 423/267/413 415/263/405 422/268/412
f 423/267/413 408/261/399 415/263/405
f 409/260/398 423/267/413 416/266/407
f 423/267/413 409/260/398 408/261/399
f 426/270/414 425/271/415 424/272/416
f 426/270/414 427/273/417 425/271/415
f 428/272/418 427/273/417 426/270/414
f 428/272/418 429/271/419 427/273/417
f 430/274/420 429/271/419 428/272/418
f 430/274/420 431/275/421 429/271/419
f 432/276/422 431/275/421 430/274/420
f 432/276/422 433/277/423 431/275/421
f 434/278/424 433/277/423 432/276/422
f 434/278/424 435/279/425 433/277/423
f 436/276/426 435/279/425 434/278/424
f 436/276/426 437/277/427 435/279/425
f 438/274/428 437/277/427 436/276/426
f 438/274/428 439/275/429 437/277/427
f 424/272/416 439/275/429 438/274/428
f 424/272/416 425/271/415 439/275/429
f 427/273/417 416/266/407 425/271/415
f 427/273/417 417/265/406 416/266/407
f 429/271/419 417/265/406 427/273/417
f 429/271/419 418/266/408 417/265/406
f 431/275/421 418/266/408 429/271/419
f 431/275/421 419/267/409 418/266/408
f 433/277/423 419/267/409 431/275/421
f 433/277/423 420/268/410 419/267/409
f 435/279/425 420/268/410 433/277/423
f 435/279/425 421/269/411 420/268/410
f 437/277/427 421/269/411 435/279/425
f 437/277/427 422/268/412 421/269/411
f 439/275/429 422/268/412 437/277/427
f 439/275/429 423/267/413 422/268/412
f 425/271/415 423/267/413 439/275/429
f 425/271/415 416/266/407 423/267/413
f 440/280/430 426/270/414 424/272/416
f 426/270/414 440/280/430 428/272/418
f 430/274/420 428/272/418 440/280/430
f 438/274/428 440/280/430 424/272/416
f 440/280/430 438/274/428 436/276/426
f 440/280/430 432/276/422 430/274/420
f 432/276/422 440/280/430 434/278/424
f 436/276/426 434/278/424 440/280/430
# 96 triangles in group

g Regroup05
usemtl Material03
f 272/281/272 448/282/431 271/283/273
f 272/281/272 449/284/432 448/282/431
f 290/285/290 449/284/432 272/281/272
f 290/285/290 450/286/433 449/284/432
f 291/287/291 450/286/433 290/285/290
f 291/287/291 451/288/434 450/286/433
f 306/289/306 451/288/434 291/287/291
f 306/289/306 452/290/435 451/288/434
f 304/291/304 452/290/435 306/289/306
f 304/291/304 453/292/436 452/290/435
f 302/293/302 453/292/436 304/291/304
f 302/293/302 454/294/437 453/292/436
f 300/295/300 454/294/437 302/293/302
f 300/295/300 455/296/438 454/294/437
f 298/297/298 455/296/438 300/295/300
f 298/297/298 456/298/439 455/296/438
f 296/299/296 456/298/439 298/297/298
f 296/299/296 457/300/440 456/298/439
f 294/301/294 457/300/440 296/299/296
f 294/301/294 458/302/441 457/300/440
f 292/303/292 458/302/441 294/301/294
f 292/303/292 459/304/442 458/302/441
f 271/305/273 459/304/442 292/303/292
f 271/305/273 448/306/431 459/304/442
f 449/284/432 460/307/443 448/282/431
f 449/284/432 461/308/444 460/307/443
f 450/286/433 461/308/444 449/284/432
f 450/286/433 462/309/445 461/308/444
f 451/288/434 462/309/445 450/286/433
f 451/288/434 463/310/446 462/309/445
f 452/290/435 463/310/446 451/288/434
f 452/290/435 464/311/447 463/310/446
f 453/292/436 464/311/447 452/290/435
f 453/292/436 465/312/448 464/311/447
f 454/294/437 465/312/448 453/292/436
f 454/294/437 466/313/449 465/312/448
f 455/296/438 466/313/449 454/294/437
f 455/296/438 467/314/450 466/313/449
f 456/298/439 467/314/450 455/296/438
f 456/298/439 468/315/451 467/314/450
f 457/300/440 468/315/451 456/298/439
f 457/300/440 469/316/452 468/315/451
f 458/302/441 469/316/452 457/300/440
f 458/302/441 470/317/453 469/316/452
f 459/304/442 470/317/453 458/302/441
f 459/304/442 471/318/454 470/317/453
f 448/306/431 471/318/454 459/304/442
f 448/306/431 460/319/443 471/318/454
f 461/308/444 472/320/455 460/307/443
f 472/320/455 461/308/444 462/309/445
f 463/310/446 472/320/455 462/309/445
f 472/320/455 463/310/446 464/311/447
f 472/320/455 471/318/454 460/319/443
f 471/318/454 472/320/455 470/317/453
f 469/316/452 470/317/453 472/320/455
f 472/320/455 468/315/451 469/316/452
f 468/315/451 472/320/455 467/314/450
f 466/313/449 467/314/450 472/320/455
f 472/320/455 465/312/448 466/313/449
f 465/312/448 472/320/455 464/311/447
# 60 triangles in group

# 902 triangles total

